<svg width="20" height="20" viewBox="0 0 20 20" fill="none" xmlns="http://www.w3.org/2000/svg">
<path d="M12.4911 1.44611L12.0589 2.03758L9.14703 6.10961H6.09869C5.08068 6.10961 4.36125 6.71814 3.66457 7.3153L3.41433 7.54279C2.88826 7.98355 1.30722 9.29729 0.274994 10.1589V12.0471C0.44561 11.9049 3.5622 9.31435 4.34703 8.65748L4.62002 8.42999C5.26267 7.87833 5.64087 7.56554 6.09869 7.56554H8.10059L4.77926 12.229L4.64277 12.4338V14.0489L5.71196 13.4575C5.71196 13.4575 8.03234 12.1864 8.37357 12.0016C9.15272 11.5807 9.63044 11.2053 10.3527 11.2053C10.8276 11.2053 11.1944 11.5835 11.1944 12.138C11.1944 12.4651 11.1233 12.5873 10.9897 12.7523C10.856 12.9172 10.62 13.1106 10.2845 13.321C9.49395 13.8158 8.62381 14.6632 8.62381 14.6632L8.57831 14.7314L8.53281 14.7769C7.68826 16.0082 6.60201 17.029 4.66551 17.029H0.274994V18.485H4.66551C6.69869 18.485 8.0295 17.4471 9.03329 16.3011L10.7622 17.6205L11.3537 18.0527L11.7859 17.4613L19.0655 7.2698L19.475 6.67833L18.9063 6.24611L13.0826 1.87833L12.4911 1.44611ZM12.8096 3.51625L17.4731 6.99682L11.0352 15.9826L10.1252 15.3001C10.4295 15.0243 10.7224 14.7599 11.0579 14.5494C11.4248 14.3219 11.8086 14.0745 12.1271 13.685C12.4456 13.2954 12.6503 12.7523 12.6503 12.138C12.6503 12.0613 12.6333 11.9845 12.6276 11.9106C13.1224 11.8366 13.5432 11.5779 13.8105 11.1371C14.4049 10.2186 14.0494 8.84231 12.9916 8.06601C12.5423 7.72478 12.0418 7.56554 11.5584 7.56554C10.9385 7.56554 10.347 7.84421 10.0115 8.36175C9.7385 8.77691 9.67878 9.28307 9.784 9.79492C8.85414 9.94848 8.18874 10.4461 7.66836 10.7276L12.8096 3.51625ZM13.9925 5.79113C13.7565 5.77691 13.5461 5.85938 13.4238 6.01862C13.1821 6.33994 13.3755 6.88307 13.856 7.24705C14.3366 7.61103 14.9338 7.65938 15.1755 7.33805C15.4172 7.01672 15.2238 6.45085 14.7432 6.08686C14.5015 5.90487 14.2285 5.80535 13.9925 5.79113ZM11.5584 9.02146C11.7461 9.02146 11.9309 9.10108 12.1271 9.24895C12.6105 9.6044 12.7385 10.1561 12.6049 10.3636H12.5821V10.3864C12.5622 10.4205 12.5224 10.4404 12.4684 10.4546L11.3082 9.77217C11.183 9.5134 11.166 9.24895 11.2399 9.13521C11.3139 9.0243 11.4902 9.02146 11.5584 9.02146Z" fill="black"/>
</svg>
