<svg width="20" height="20" viewBox="0 0 20 20" fill="none" xmlns="http://www.w3.org/2000/svg">
<path d="M5.00357 9.09692C4.60697 9.09692 4.26717 9.23152 3.98197 9.50072C3.71297 9.78592 3.57837 10.1257 3.57837 10.5215C3.57837 10.9177 3.71297 11.2495 3.98197 11.5199C4.26717 11.8037 4.60697 11.9475 5.00357 11.9475C5.39917 11.9475 5.73177 11.8037 6.00097 11.5199C6.28637 11.2493 6.42777 10.9177 6.42777 10.5215C6.42777 10.1257 6.28637 9.78592 6.00097 9.50072C5.73157 9.23152 5.39917 9.09692 5.00357 9.09692Z" fill="black"/>
<path d="M14.5514 9.09692C14.1558 9.09692 13.815 9.23152 13.5296 9.50072C13.2606 9.78592 13.126 10.1257 13.126 10.5215C13.126 10.9177 13.2606 11.2495 13.5296 11.5199C13.815 11.8037 14.1558 11.9475 14.5514 11.9475C14.947 11.9475 15.2798 11.8037 15.5488 11.5199C15.8332 11.2493 15.9768 10.9177 15.9768 10.5215C15.9768 10.1257 15.8332 9.78592 15.5488 9.50072C15.2798 9.23152 14.947 9.09692 14.5514 9.09692Z" fill="black"/>
<path d="M11.6997 9.90438C11.6349 9.89478 11.5711 9.90298 11.5095 9.92738C11.4551 9.96458 11.4157 10.0106 11.3913 10.0698C11.1871 10.7786 10.6629 11.1266 9.82311 11.1148C8.98151 11.1032 8.45111 10.7312 8.23191 9.99938C8.22491 9.94358 8.19271 9.89738 8.13671 9.85658C8.08111 9.83218 8.01731 9.82298 7.94671 9.83218C7.89211 9.85658 7.84451 9.89578 7.80511 9.95178C7.77951 10.0086 7.77251 10.0644 7.78051 10.1174C8.05311 11.0802 8.73251 11.5708 9.82271 11.5902C10.9153 11.6104 11.5879 11.1508 11.8419 10.2128C11.8675 10.1464 11.8593 10.0826 11.8189 10.0224C11.7997 9.96678 11.7601 9.92758 11.6997 9.90438Z" fill="black"/>
<path d="M8.94526 4.01398H10.3709L10.7269 4.94058H11.1549L9.87186 1.61438H9.46826L8.18546 4.94058H8.61226L8.94526 4.01398ZM9.60966 2.23238C9.62606 2.18498 9.64226 2.11298 9.65726 2.01838C9.67346 2.11318 9.68866 2.18498 9.70486 2.23238L10.2277 3.65798H9.08786L9.60966 2.23238Z" fill="black"/>
<path d="M13.363 4.58338H12.0336V1.61438H11.629V4.94058H13.363V4.58338Z" fill="black"/>
<path d="M5.02632 4.46498C5.34172 4.16378 5.50072 3.75278 5.50072 3.22998C5.50072 2.15218 4.91512 1.61438 3.74372 1.61438H2.81732V4.94058H3.69632C4.24932 4.94058 4.69352 4.78178 5.02632 4.46498ZM3.22072 1.97138H3.74352C4.64592 1.97138 5.09692 2.39798 5.09692 3.25418C5.09692 3.68118 4.97772 4.00558 4.74092 4.22858C4.48832 4.46498 4.14712 4.58318 3.71932 4.58318H3.22072V1.97138Z" fill="black"/>
<path d="M7.92427 4.58338H6.54627V3.42018H7.73387V3.06358H6.54627V1.97138H7.82907V1.61438H6.14267V4.94058H7.92427V4.58338Z" fill="black"/>
<path d="M16.6171 0H2.96012C1.53132 0 0.818115 0.6968 0.822715 2.09V13.8702C0.820515 15.2808 1.53372 15.9848 2.96012 15.9848H6.23852L6.23751 16.1272C6.22852 16.763 6.01491 17.1826 5.59752 17.3854C5.06752 17.5918 3.90412 17.6956 2.10552 17.6956C1.94312 17.6956 1.80052 17.751 1.67752 17.8598C1.56832 17.983 1.51272 18.1258 1.51152 18.2892C1.51252 18.4514 1.56832 18.5858 1.67752 18.6928C1.80052 18.8182 1.94312 18.8808 2.10552 18.8832C4.13852 18.8816 5.45371 18.747 6.04711 18.4784C6.94491 18.1432 7.40431 17.368 7.42511 16.1504L7.42631 15.9848H8.32852V17.8848C8.32852 18.2184 8.24151 18.4556 8.06751 18.5976C7.82752 18.7516 7.42391 18.8224 6.85552 18.811C6.69911 18.8084 6.55512 18.8634 6.42752 18.9766C6.31872 19.0916 6.26292 19.2258 6.26171 19.3814C6.25811 19.5528 6.31392 19.6968 6.42752 19.8082C6.54252 19.9336 6.67692 19.9958 6.83112 19.998C7.73692 20.018 8.37812 19.8754 8.75631 19.5702C9.26192 19.2534 9.51472 18.6914 9.51591 17.8844V15.9844H10.0391V17.8844C10.0391 18.6914 10.2839 19.2534 10.7745 19.5702C11.1687 19.8752 11.8087 20.0178 12.6983 19.998C12.8689 19.9956 13.0127 19.9336 13.1263 19.8082C13.2401 19.6968 13.2959 19.553 13.2923 19.3814C13.2911 19.2258 13.2271 19.0916 13.1019 18.9766C12.9907 18.8634 12.8481 18.8084 12.6741 18.811C12.1219 18.8224 11.7183 18.7514 11.4633 18.5976C11.3055 18.4556 11.2255 18.2184 11.2265 17.8848V15.9848H12.1277L12.1287 16.1504C12.1495 17.368 12.6009 18.1432 13.4821 18.4784C14.0933 18.7472 15.4155 18.8818 17.4483 18.8832C17.6109 18.8808 17.7451 18.8182 17.8523 18.6928C17.9775 18.586 18.0411 18.4514 18.0423 18.2892C18.0411 18.1258 17.9775 17.983 17.8523 17.8598C17.7453 17.751 17.6109 17.6956 17.4483 17.6956C15.6497 17.6956 14.4783 17.5918 13.9333 17.3854C13.5345 17.185 13.3281 16.7726 13.3163 16.1504L13.3151 15.9848H16.6169C18.0445 15.9848 18.7579 15.2808 18.7553 13.8704V2.09C18.7603 0.6968 18.0473 0 16.6171 0ZM17.8047 13.8704C17.8025 14.6478 17.4069 15.0348 16.6171 15.0348H2.96012C2.17172 15.0348 1.77472 14.6476 1.77252 13.8704V2.09C1.77692 1.3304 2.17372 0.95 2.96012 0.95H16.6171C17.4045 0.95 17.8001 1.3304 17.8047 2.09V13.8704Z" fill="black"/>
</svg>
