<svg width="16" height="21" viewBox="0 0 16 21" fill="none" xmlns="http://www.w3.org/2000/svg">
<g clip-path="url(#clip0)">
<path d="M8 21.0051L0 15.5907V0H16V15.5907L8 21.0051ZM15.3846 15.2614H15.3966H15.3846Z" fill="#FF7F40"/>
<path d="M8 21.0051L16 15.5907V0H8V21.0051Z" fill="#F25A3C"/>
<path d="M11.1849 13.4261L8.00018 11.7514L4.81547 13.4261L5.42344 9.87936L2.84735 7.36796L6.40749 6.8503L8.00018 3.62329L9.59286 6.8503L13.153 7.36796L10.5769 9.87936L11.1849 13.4261Z" fill="#FFDF40"/>
<path d="M11.1847 13.4261L10.5767 9.87936L13.1528 7.36796L9.59265 6.8503L7.99997 3.62329V11.7514L11.1847 13.4261Z" fill="#FFBE40"/>
</g>
<defs>
<clipPath id="clip0">
<rect width="16" height="21" fill="white"/>
</clipPath>
</defs>
</svg>
