<svg width="20" height="17" viewBox="0 0 20 17" fill="none" xmlns="http://www.w3.org/2000/svg">
<g clip-path="url(#clip0)">
<path d="M12.9216 9.05347C11.4401 9.05347 10.3701 10.2057 10.3701 11.6049C10.3701 13.0041 11.5224 14.1563 12.9216 14.1563C14.3207 14.1563 15.473 13.0041 15.473 11.6049C15.473 10.2057 14.3207 9.05347 12.9216 9.05347ZM12.9216 13.0041C12.0985 13.0041 11.4401 12.3456 11.4401 11.5226C11.4401 10.6996 12.0985 10.0411 12.9216 10.0411C13.7446 10.0411 14.403 10.6996 14.403 11.5226C14.403 12.3456 13.6623 13.0041 12.9216 13.0041Z" fill="white"/>
<path d="M19.9997 6.74887C19.9997 5.84352 19.1767 5.10278 18.2713 5.10278H13.7446C13.4977 5.10278 13.3331 5.26739 13.2508 5.432L12.51 6.83118H7.98328C7.07793 6.83118 6.25488 7.65422 6.25488 8.55957V14.8147C6.25488 15.7201 7.07793 16.5431 7.98328 16.5431H18.2713C19.1767 16.5431 19.9997 15.7201 19.9997 14.8147V6.74887ZM18.9298 14.7324C18.9298 15.0616 18.6006 15.3085 18.3536 15.3085H7.98328C7.65406 15.3085 7.40715 14.9793 7.40715 14.7324V8.47727C7.40715 8.14805 7.73636 7.90114 7.98328 7.90114H12.9216C13.1685 7.90114 13.3331 7.73653 13.4154 7.57192L14.1561 6.17274H18.436C18.7652 6.17274 19.0121 6.50196 19.0121 6.74887L18.9298 14.7324Z" fill="white"/>
<path d="M6.41954 6.17278C6.41954 5.84356 6.25493 5.67896 6.09033 5.67896H2.30432C2.0574 5.67896 1.9751 5.92587 1.9751 6.17278C1.9751 6.502 2.13971 6.66661 2.30432 6.66661H6.09033C6.17263 6.66661 6.41954 6.4197 6.41954 6.17278Z" fill="white"/>
<path d="M4.44444 9.87654H1.97531C1.48148 9.87654 0.987654 9.46502 0.987654 8.88889V1.97531C1.06996 1.48148 1.48148 1.06996 1.97531 1.06996H7.98354C8.47737 1.06996 8.97119 1.48148 8.97119 2.05761V5.10288C8.97119 5.4321 9.21811 5.59671 9.46502 5.59671C9.71193 5.59671 9.95885 5.34979 9.95885 5.10288V1.97531C9.87654 0.90535 9.0535 0 7.98354 0H1.97531C0.90535 0 0 0.90535 0 1.97531V8.97119C0 10.0412 0.90535 10.9465 1.97531 10.9465H4.44444C4.69136 10.9465 4.93827 10.6996 4.93827 10.3704C4.85597 10.1235 4.60905 9.87654 4.44444 9.87654Z" fill="white"/>
<path d="M7.4072 2.96289H2.38662C2.13971 2.96289 1.9751 3.2098 1.9751 3.37441C1.9751 3.70363 2.22201 3.86824 2.46892 3.86824H7.4895C7.81872 3.86824 7.98333 3.62133 7.98333 3.37441C7.98333 3.2098 7.73641 2.96289 7.4072 2.96289Z" fill="white"/>
</g>
<defs>
<clipPath id="clip0">
<rect width="20" height="16.4609" fill="white"/>
</clipPath>
</defs>
</svg>
