<svg width="20" height="20" viewBox="0 0 20 20" fill="none" xmlns="http://www.w3.org/2000/svg">
<path d="M19.6578 12.6838C19.4188 12.2396 19.0312 12.0104 18.4942 11.9966C17.8044 11.9174 17.3044 11.762 16.993 11.5314C18.0344 10.3862 18.5558 9.05676 18.5558 7.54136C18.5558 5.66696 17.755 4.07396 16.153 2.75956C14.564 1.44076 12.6442 0.780762 10.391 0.780762C8.13678 0.780762 6.20858 1.44076 4.60618 2.75956C3.01798 4.07396 2.22398 5.66696 2.22398 7.54136C2.22398 8.94776 2.67478 10.2004 3.57698 11.298C2.95838 11.8814 2.22478 12.1896 1.37678 12.2222C0.363778 12.4842 0.00477839 13.1102 0.300178 14.0986C0.610378 15.2312 1.32698 15.6784 2.44958 15.4408C2.66058 15.3978 2.87158 15.304 3.08238 15.1608C2.33658 15.8142 2.30518 16.5024 2.98798 17.2266C3.81838 17.958 4.69358 18.043 5.61378 17.4808C6.10398 17.1672 6.63338 16.7058 7.20298 16.0948L6.90478 16.7862C6.54498 17.9616 6.88538 18.7222 7.92678 19.0664C8.96678 19.4134 9.85358 19.169 10.5848 18.3318C10.9766 17.7932 11.2918 16.9906 11.5308 15.9248L12.1562 17.5684C12.7684 18.7734 13.7722 19.1868 15.1668 18.8084C16.0164 18.5494 16.4864 17.9956 16.5786 17.1462C16.6028 16.7056 16.4462 16.276 16.1064 15.8586C15.7662 15.4436 15.5688 15.0676 15.5174 14.7314C17.2728 15.7324 18.5362 15.7996 19.31 14.9318C19.8122 14.2598 19.929 13.5108 19.6578 12.6838ZM17.5922 14.6516C16.689 14.494 15.6868 14.0436 14.5844 13.3018C14.5426 14.5596 14.8626 15.6512 15.541 16.579C15.8476 17.1884 15.6692 17.6464 15.0066 17.9534C14.0944 18.2938 13.4004 17.9634 12.9266 16.961C12.1082 15.0752 11.539 14.0684 11.2208 13.9422C10.9962 15.0796 10.6806 16.1222 10.2758 17.0702C9.97618 17.926 9.45638 18.3582 8.71598 18.368C7.74938 18.4062 7.44178 17.8698 7.79178 16.7568C8.17278 15.203 8.24338 14.234 8.00278 13.8478C7.21338 14.9304 6.41878 15.7872 5.61698 16.4188C4.94258 16.9706 4.37998 17.0948 3.92938 16.7936C3.47838 16.491 3.35618 16.1756 3.56218 15.8478C4.61358 14.6456 5.15418 13.7442 5.18418 13.142C4.45818 13.6718 3.71738 14.1086 2.96218 14.4512C1.96238 14.9426 1.32718 14.8158 1.05638 14.0698C0.847978 13.4328 1.09778 13.0398 1.80578 12.8872C3.01578 12.707 3.88478 12.109 4.41318 11.0952C4.08358 10.7766 3.79878 10.3214 3.55878 9.72736C2.99878 8.50076 2.99878 7.18256 3.55878 5.77376C4.62778 3.42016 6.69838 2.09596 9.77018 1.80256C11.2152 1.67396 12.6196 1.92976 13.9856 2.57016C16.2614 3.81916 17.4524 5.42516 17.5564 7.38876C17.6916 9.10996 17.1244 10.5102 15.851 11.589C15.9474 12.0144 16.7112 12.3822 18.1386 12.6948C18.6846 12.7438 18.9436 13.049 18.9164 13.6118C18.805 14.349 18.3644 14.6954 17.5922 14.6516Z" fill="black"/>
<path d="M10.0685 9.31287C9.61748 9.31287 9.23128 9.47287 8.91168 9.79267C8.59188 10.1131 8.43188 10.4985 8.43188 10.9491C8.43188 11.4001 8.59188 11.7861 8.91168 12.1059C9.23148 12.4255 9.61748 12.5857 10.0685 12.5857C10.5193 12.5857 10.9041 12.4253 11.2253 12.1059C11.5453 11.7859 11.7045 11.4001 11.7045 10.9491C11.7045 10.4985 11.5451 10.1129 11.2253 9.79267C10.9041 9.47287 10.5195 9.31287 10.0685 9.31287ZM10.8687 11.7503C10.6503 11.9707 10.3855 12.0815 10.0757 12.0815C9.76508 12.0815 9.50088 11.9705 9.28188 11.7503C9.06148 11.5313 8.95048 11.2671 8.95048 10.9567C8.95048 10.6461 9.06148 10.3809 9.28188 10.1599C9.50088 9.94167 9.76508 9.83167 10.0757 9.83167C10.3855 9.83167 10.6505 9.94167 10.8687 10.1599C11.0897 10.3809 11.2007 10.6463 11.2007 10.9567C11.2007 11.2671 11.0897 11.5313 10.8687 11.7503Z" fill="black"/>
<path d="M9.85753 10.2151C9.73853 10.2151 9.63633 10.2575 9.55133 10.3425C9.46913 10.4275 9.42813 10.5289 9.42813 10.6477C9.42813 10.7635 9.46913 10.8645 9.55133 10.9495C9.63613 11.0345 9.73853 11.0771 9.85753 11.0771C9.97613 11.0771 10.0771 11.0345 10.1593 10.9495C10.2441 10.8645 10.2859 10.7635 10.2859 10.6477C10.2859 10.5287 10.2441 10.4273 10.1593 10.3425C10.0769 10.2575 9.97613 10.2151 9.85753 10.2151Z" fill="black"/>
<path d="M12.6715 5.5457C12.0923 5.8243 11.8445 6.4377 11.9297 7.3857C12.0175 8.2167 12.5191 8.5739 13.4321 8.4547C14.1555 8.3337 14.4289 7.7891 14.2547 6.8225C13.9965 5.7989 13.4697 5.3733 12.6715 5.5457Z" fill="black"/>
<path d="M13.1885 4.99268C13.0033 4.99268 12.8085 5.01448 12.6081 5.05768L12.5049 5.09308C11.4549 5.59768 10.9967 6.66968 11.1443 8.28448C11.2803 9.59268 12.0635 10.3129 13.3497 10.3129C13.5197 10.3129 13.7001 10.3005 13.9087 10.2733C14.4861 10.1775 14.9239 9.92228 15.2123 9.51628C15.5779 8.99748 15.6749 8.27888 15.4979 7.28668C15.0151 5.39048 13.9761 4.99268 13.1885 4.99268ZM13.8327 9.81848C12.4741 9.99588 11.7307 9.46848 11.6027 8.23688C11.4741 6.83268 11.8417 5.92368 12.7047 5.50848C13.8829 5.25448 14.6653 5.88448 15.0511 7.39988C15.3045 8.83548 14.8983 9.64148 13.8327 9.81848Z" fill="black"/>
<path d="M7.58783 5.54563C6.78983 5.37343 6.26303 5.79903 6.00583 6.82242C5.83163 7.78902 6.10523 8.33362 6.82803 8.45462C7.74203 8.57402 8.24263 8.21683 8.32963 7.38563C8.41483 6.43763 8.16703 5.82403 7.58783 5.54563Z" fill="black"/>
<path d="M7.73066 5.09308L7.62686 5.05768C7.42666 5.01448 7.23086 4.99268 7.04566 4.99268C6.25726 4.99268 5.21646 5.39048 4.73046 7.31848C4.55906 8.27648 4.65366 8.99468 5.02026 9.51328C5.30826 9.92168 5.74926 10.1773 6.34626 10.2759C6.53746 10.3005 6.71786 10.3129 6.88786 10.3129C8.16906 10.3129 8.95046 9.59268 9.08766 8.27888C9.23446 6.66968 8.77786 5.59768 7.73066 5.09308ZM8.62806 8.23688C8.49986 9.46848 7.75946 9.99588 6.40626 9.81848C5.33486 9.64148 4.92706 8.83548 5.18426 7.39988C5.56746 5.88448 6.34926 5.25448 7.53046 5.50848C8.39046 5.92348 8.75626 6.83248 8.62806 8.23688Z" fill="black"/>
</svg>
